…
So we can see that the 90th percentile EPA for rushes is 1.79 and the 90th percentile for passes is 2.45. We can then use that information to create a new binary variable for whether a play was explosive or not based based on EPA: 


```r
pbp_2019 %>%
    mutate(epa_explosive = if_else(rush == 1 & EPA >= 1.7917221, 1, 
                                 if_else(pass == 1 & EPA >= 2.4486338, 1, 0)))
```

```
## # A tibble: 115,834 x 78
##        X1 game_id drive_id new_id id_play.x offense defense home  away  period
##     <dbl>   <dbl>    <dbl>  <dbl>     <dbl> <chr>   <chr>   <chr> <chr>  <dbl>
##  1 484768  4.01e8   4.01e9 1.02e8   4.01e17 Alabama Duke    Alab~ Duke       1
##  2 484769  4.01e8   4.01e9 1.02e8   4.01e17 Alabama Duke    Alab~ Duke       1
##  3 484770  4.01e8   4.01e9 1.02e8   4.01e17 Alabama Duke    Alab~ Duke       1
##  4 484771  4.01e8   4.01e9 1.02e8   4.01e17 Duke    Alabama Alab~ Duke       1
##  5 484772  4.01e8   4.01e9 1.02e8   4.01e17 Duke    Alabama Alab~ Duke       1
##  6 484773  4.01e8   4.01e9 1.02e8   4.01e17 Duke    Alabama Alab~ Duke       1
##  7 484774  4.01e8   4.01e9 1.02e8   4.01e17 Alabama Duke    Alab~ Duke       1
##  8 484775  4.01e8   4.01e9 1.02e8   4.01e17 Alabama Duke    Alab~ Duke       1
##  9 484776  4.01e8   4.01e9 1.02e8   4.01e17 Duke    Alabama Alab~ Duke       1
## 10 484777  4.01e8   4.01e9 1.02e8   4.01e17 Duke    Alabama Alab~ Duke       1
## # ... with 115,824 more rows, and 68 more variables: half <dbl>,
## #   clock.minutes <dbl>, clock.seconds <dbl>, offense_score <dbl>,
## #   defense_score <dbl>, play_type <chr>, play_text <chr>, scoring <lgl>,
## #   TimeSecsRem <dbl>, Under_two <lgl>, down <dbl>, Goal_To_Go <lgl>,
## #   distance <dbl>, adjusted_yardline <dbl>, yards_gained <dbl>,
## #   TimeSecsRem_end <dbl>, down_end <dbl>, distance_end <dbl>,
## #   adj_yd_line_end <dbl>, ppa <dbl>, start_yardline <dbl>, yards <dbl>,
## #   drive_result <chr>, pts_drive <dbl>, turnover <dbl>, ep_before <dbl>,
## #   ep_after <dbl>, EPA <dbl>, score_diff <dbl>, home_EPA <dbl>,
…
